Text Mining Assignment
…
Sentiment Analysis

Question 1

get_sentiments("bing")

## # A tibble: 6,786 x 2
##    word        sentiment
##    <chr>       <chr>    
##  1 2-faces     negative 
##  2 abnormal    negative 
##  3 abolish     negative 
##  4 abominable  negative 
##  5 abominably  negative 
##  6 abominate   negative 
##  7 abomination negative 
##  8 abort       negative 
##  9 aborted     negative 
## 10 aborts      negative 
## # ... with 6,776 more rows

get_sentiments("afinn")

## # A tibble: 2,477 x 2
##    word       value
##    <chr>      <dbl>
##  1 abandon       -2
##  2 abandoned     -2
##  3 abandons      -2
##  4 abducted      -2
##  5 abduction     -2
##  6 abductions    -2
##  7 abhor         -3
##  8 abhorred      -3
##  9 abhorrent     -3
## 10 abhors        -3
## # ... with 2,467 more rows

get_sentiments("nrc")

## # A tibble: 13,901 x 2
##    word        sentiment
##    <chr>       <chr>    
##  1 abacus      trust    
##  2 abandon     fear     
##  3 abandon     negative 
##  4 abandon     sadness  
##  5 abandoned   anger    
##  6 abandoned   fear     
##  7 abandoned   negative 
##  8 abandoned   sadness  
##  9 abandonment anger    
## 10 abandonment fear     
## # ... with 13,891 more rows
…
Question 3

LDA_wordprob <- tidy(LDA, matrix = "beta")

Question 4

(LDA_mostprob <- LDA_wordprob %>%
  group_by(topic) %>%
  slice_max(beta, n = 5))

## # A tibble: 30 x 3
## # Groups:   topic [6]
##    topic term       beta
##    <int> <chr>     <dbl>
##  1     1 time    0.00728
##  2     1 king    0.00643
##  3     1 people  0.00430
##  4     1 ye      0.00389
##  5     1 hundred 0.00364
##  6     2 alice   0.0423 
##  7     2 queen   0.0127 
##  8     2 time    0.00774
##  9     2 its    0.00763
## 10     2 dont   0.00722
## # ... with 20 more rows
…
Question 6

(LDA_pertopicprob <- tidy(LDA, matrix = "gamma"))

## # A tibble: 1,716 x 3
##    document                                       topic     gamma
##    <chr>                                          <int>     <dbl>
##  1 Adventures of Huckleberry Finn_51                  1 0.0000118
##  2 Through the Looking-Glass_9                        1 0.0000138
##  3 The Adventures of Tom Sawyer_66                    1 0.0000185
##  4 Through the Looking-Glass_6                        1 0.0000193
##  5 A Connecticut Yankee in King Arthur's Court_9      1 0.0000256
##  6 Through the Looking-Glass_8                        1 0.0000155
##  7 Through the Looking-Glass_5                        1 0.0000203
##  8 The Adventures of Tom Sawyer_41                    1 0.0000143
##  9 A Connecticut Yankee in King Arthur's Court_43     1 0.0000145
## 10 Alice's Adventures in Wonderland_7                 1 0.0000265
## # ... with 1,706 more rows
…
Question 8

(highest_gamma <- chapters_gamma %>%
  group_by(title, chapter) %>%
  slice_max(gamma, n = 1) %>%   # 'top_n' has been superseded by 'slice_max'
  ungroup())

## # A tibble: 286 x 4
##    title                                       chapter topic gamma
##    <chr>                                         <int> <int> <dbl>
##  1 A Connecticut Yankee in King Arthur's Court       1     1 0.429
##  2 A Connecticut Yankee in King Arthur's Court       2     1 0.425
##  3 A Connecticut Yankee in King Arthur's Court       3     3 0.402
##  4 A Connecticut Yankee in King Arthur's Court       4     3 0.701
##  5 A Connecticut Yankee in King Arthur's Court       5     1 0.975
##  6 A Connecticut Yankee in King Arthur's Court       6     1 0.750
##  7 A Connecticut Yankee in King Arthur's Court       7     1 0.563
##  8 A Connecticut Yankee in King Arthur's Court       8     1 1.00 
##  9 A Connecticut Yankee in King Arthur's Court       9     3 1.00 
## 10 A Connecticut Yankee in King Arthur's Court      10     3 1.00 
## # ... with 276 more rows

Question 9

book_topics <- highest_gamma %>%
  count(title, topic) %>%
  group_by(title) %>%
  top_n(1, n) %>%
  ungroup() %>%
  transmute(consensus = title, topic)

highest_gamma %>%
  inner_join(book_topics, by = "topic") %>%
  filter(title != consensus)

## # A tibble: 55 x 5
##    title                        chapter topic gamma consensus                   
##    <chr>                          <int> <int> <dbl> <chr>                       
##  1 A Connecticut Yankee in Kin~      21     4 0.536 The Adventures of Tom Sawyer
##  2 A Connecticut Yankee in Kin~      33     4 0.697 The Adventures of Tom Sawyer
##  3 Adventures of Huckleberry F~       4     4 0.981 The Adventures of Tom Sawyer
##  4 Adventures of Huckleberry F~       5     4 0.984 The Adventures of Tom Sawyer
##  5 Adventures of Huckleberry F~       6     4 0.990 The Adventures of Tom Sawyer
##  6 Adventures of Huckleberry F~       9     4 0.981 The Adventures of Tom Sawyer
##  7 Adventures of Huckleberry F~      11     4 0.639 The Adventures of Tom Sawyer
##  8 Adventures of Huckleberry F~      24     5 0.671 The Innocents Abroad        
##  9 Adventures of Huckleberry F~      27     4 0.989 The Adventures of Tom Sawyer
## 10 Adventures of Huckleberry F~      29     1 0.824 A Connecticut Yankee in Kin~
## # ... with 45 more rows
…
